{
	"id": "56489880-dc35-4fa5-b19c-96b6ba658268",
	"name": "Production",
	"values": [
		{
			"key": "baseUrl",
			"value": "http://CarsApi-env.eba-fyhbyykp.us-east-1.elasticbeanstalk.com",
			"enabled": true
		}
	],
	"_postman_variable_scope": "environment",
	"_postman_exported_at": "2020-09-21T03:39:19.520Z",
	"_postman_exported_using": "Postman/7.32.0"
}